{
    "id": "2e6f34fe-be34-3e84-a1cc-27c0f378ab58",
    "name": "realML.localgraphclustering.sweepCut_fast",
    "common_name": "sweepCut_fast",
    "description": "It implements a sweep cut rounding procedure for local graph clustering. It calss a C++ wrapper.",
    "languages": [
        "python3.5"
    ],
    "library": "LocalGraphClustering",
    "version": "0.3.5",
    "source_code": "https://gitlab.datadrivendiscovery.org/kfountoulakis/LocalGraphClustering_DARPA/blob/master/localgraphclustering/sweepCut_fast.py",
    "is_class": true,
    "parameters": [ 
        {
            "is_hyperparameter": false,
            "type": "ndarray",
            "name": "p",
            "description": "A vector that is used to perform rounding."
        }
        ,
        {
            "is_hyperparameter": false,
            "type": "Sequence[Graph]",
            "name": "inputs",
            "description": "A list of Graph objects"
        }
        ,
        {
            "is_hyperparameter": true,
            "type": "int",
            "name": "iterations",
            "description": "This is not used"
        }
        ,
        {
            "is_hyperparameter": true,
            "type": "int",
            "name": "timeout",
            "description": "This is not used"
        }
        ,
        {
            "is_hyperparameter": true,
            "type": "boolean",
            "name": "do_sort",
            "description": "If do_sort is equal to 1 then vector p is sorted in descending order first. If do_sort is equal to 0 then vector p is not sorted."
        }
    ]
    ,
    "team": "ICSI",
    "interface_type" : "graph",
    "schema_version": 1.0,
    "build": [
        {
            "type": "pip",
            "package": "git+https://gitlab.datadrivendiscovery.org/kfountoulakis/LocalGraphClustering_DARPA.git"
        }
    ],
    "compute_resources": {
        "sample_size": [
            5180
        ],
        "sample_unit": [
            "MB"
        ],
        "num_nodes": [
            1
        ],
        "cores_per_node": [
            1
        ],
        "gpus_per_node": [
            0
        ],
        "mem_per_node": [
            1.0
        ],
        "disk_per_node": [
            1.0
        ],
        "mem_per_gpu": [
            0.0
        ],
        "expected_running_time": [
            12.0
        ]
    }
}
